…
Let’s start with a `for` loop.

``` r
output = vector("list", length = 100)

for (i in 1:100) {
  
  output[[i]] = sim_mean_sd(samp_size = 30)
  
}

bind_rows(output)
```

    ## # A tibble: 100 x 2
    ##     mean    sd
    ##    <dbl> <dbl>
    ##  1  2.92  4.68
    ##  2  2.15  3.76
    ##  3  2.41  4.35
    ##  4  2.73  3.54
    ##  5  2.64  3.73
    ##  6  3.39  4.43
    ##  7  2.21  3.72
    ##  8  2.35  4.68
    ##  9  3.02  4.10
    ## 10  2.62  4.46
    ## # … with 90 more rows
…
